<svg width="40" height="40" viewBox="0 0 40 40" fill="none" xmlns="http://www.w3.org/2000/svg">
<g clip-path="url(#clip0)">
<path d="M20 26.562C19.5687 26.562 19.2188 26.912 19.2188 27.3433C19.2188 27.7745 19.5687 28.1245 20 28.1245C20.4312 28.1245 20.7812 27.7745 20.7812 27.3433C20.7812 26.912 20.4312 26.562 20 26.562Z" fill="#2CAAF2"/>
<path d="M11.5715 8.77123C11.3963 8.37693 10.9343 8.19951 10.5403 8.37459L7.18243 9.86693C6.78813 10.0422 6.61055 10.5039 6.78579 10.8982C6.91509 11.1894 7.20071 11.3623 7.50009 11.3623C7.6061 11.3623 7.71384 11.3406 7.81696 11.2948L11.1749 9.80248C11.5691 9.62732 11.7467 9.16553 11.5715 8.77123Z" fill="#2CAAF2"/>
<path d="M32.818 9.8669L29.4601 8.37456C29.0659 8.19956 28.6041 8.3769 28.4289 8.7712C28.2536 9.16541 28.4312 9.62713 28.8255 9.80245L32.1834 11.2948C32.2865 11.3406 32.3942 11.3623 32.5002 11.3623C32.7995 11.3623 33.0852 11.1892 33.2146 10.8981C33.3898 10.5039 33.2123 10.0421 32.818 9.8669Z" fill="#2CAAF2"/>
<path d="M39.3757 22.1869L34.688 15.9367C34.6795 15.9254 34.6701 15.9151 34.6612 15.9044C34.6558 15.8981 34.6508 15.8916 34.6453 15.8854C34.6229 15.8603 34.5992 15.8367 34.5743 15.8151C34.571 15.8122 34.5675 15.8097 34.5642 15.8069C34.5405 15.7871 34.5159 15.769 34.4905 15.7524C34.485 15.7488 34.4797 15.7452 34.474 15.7418C34.4444 15.7234 34.4138 15.7068 34.3823 15.6926C34.3815 15.6923 34.381 15.6918 34.3803 15.6916L25.2934 11.6529C26.409 10.3824 27.0315 8.75232 27.0315 7.03021C27.0315 5.03302 26.1776 3.12302 24.6887 1.79005C23.2013 0.458257 21.2012 -0.178462 19.2009 0.0433347C17.7018 0.209194 16.2622 0.8856 15.1474 1.94802C14.0305 3.01248 13.2877 4.41873 13.056 5.90779C12.7261 8.02732 13.3366 10.0986 14.7058 11.6534L5.61982 15.6916C5.61912 15.6919 5.61857 15.6924 5.61787 15.6927C5.58631 15.7068 5.55584 15.7234 5.52615 15.7418C5.52053 15.7453 5.51514 15.749 5.50959 15.7526C5.4842 15.7691 5.45967 15.7872 5.43615 15.8069C5.43279 15.8097 5.42912 15.8122 5.42576 15.8151C5.40084 15.8368 5.37724 15.8603 5.35482 15.8854C5.34928 15.8915 5.34428 15.8981 5.33889 15.9045C5.3299 15.9152 5.3206 15.9254 5.31209 15.9367L0.624509 22.1869C0.481775 22.3772 0.433572 22.6221 0.493416 22.8523C0.553259 23.0826 0.714744 23.2729 0.932166 23.3695L5.15592 25.2467V32.9684C5.15592 33.2772 5.33771 33.5569 5.61982 33.6823L19.6828 39.9326C19.6841 39.9331 19.6854 39.9335 19.6868 39.934C19.7074 39.9431 19.7285 39.951 19.75 39.9583C19.7538 39.9596 19.7576 39.9612 19.7615 39.9625C19.7854 39.9701 19.8098 39.9766 19.8347 39.982C19.8362 39.9823 19.8377 39.9828 19.8392 39.9832C19.8912 39.994 19.945 40 20.0001 40C20.0553 40 20.1091 39.9941 20.1611 39.9832C20.1626 39.9829 20.164 39.9824 20.1655 39.982C20.1904 39.9766 20.2148 39.9701 20.2388 39.9625C20.2427 39.9612 20.2465 39.9596 20.2503 39.9583C20.2718 39.951 20.2929 39.9431 20.3135 39.934C20.3148 39.9335 20.3162 39.9331 20.3175 39.9326L34.3805 33.6823C34.6626 33.557 34.8444 33.2772 34.8444 32.9684V25.2467L39.0681 23.3695C39.2855 23.2729 39.4469 23.0825 39.5069 22.8523C39.5667 22.6222 39.5184 22.3772 39.3757 22.1869ZM14.6 6.14779C14.9691 3.7756 16.9764 1.8613 19.3729 1.59623C20.9549 1.42068 22.4726 1.90318 23.6465 2.95412C24.8048 3.99099 25.4691 5.47669 25.4691 7.03013C25.4691 8.69091 24.7244 10.2421 23.4237 11.2878C23.3746 11.3276 23.3249 11.3665 23.2741 11.4044C23.1504 11.4968 23.0368 11.6026 22.934 11.7178H20.7815V8.91638L22.1152 7.58263C22.4203 7.27755 22.4203 6.78287 22.1152 6.47771C21.8101 6.17271 21.3155 6.17271 21.0103 6.47771L20.0001 7.48779L18.99 6.47763C18.6849 6.17263 18.1902 6.17263 17.8851 6.47763C17.58 6.78271 17.58 7.2774 17.8851 7.58255L19.2188 8.9163V11.7177H17.0651C16.9614 11.6013 16.8467 11.4945 16.7215 11.4008C16.6719 11.3639 16.6237 11.3256 16.5747 11.2861C15.0307 10.0444 14.2924 8.12357 14.6 6.14779ZM18.4376 14.8429C18.3187 14.8429 18.2047 14.8171 18.0991 14.7664C17.826 14.6348 17.6563 14.3648 17.6563 14.0616V13.2804H22.344V14.0616C22.344 14.3765 22.1565 14.6591 21.8662 14.7819C21.7705 14.8224 21.6684 14.8429 21.5627 14.8429H18.4376ZM21.5626 16.4054C21.5626 17.2669 20.8617 17.9679 20.0001 17.9679C19.583 17.9679 19.1908 17.8053 18.8955 17.5101C18.6002 17.2148 18.4376 16.8225 18.4376 16.4054H21.5626V16.4054ZM15.944 12.8128C15.9696 12.8476 15.9933 12.884 16.0129 12.9234C16.0665 13.0307 16.0937 13.1463 16.0937 13.267V14.0615C16.0937 14.7334 16.3873 15.3681 16.875 15.8072V16.4054C16.875 17.2398 17.2001 18.0246 17.7905 18.6149C18.381 19.2053 19.1657 19.5304 20.0001 19.5304C21.7233 19.5304 23.1251 18.1285 23.1251 16.4054V15.8076C23.6136 15.3709 23.9064 14.7419 23.9064 14.0615V13.267C23.9064 13.1474 23.934 13.0287 23.9866 12.9229C24.0059 12.884 24.0297 12.8476 24.0556 12.8126L32.1393 16.4054L20.0001 21.8006L7.86084 16.4054L15.944 12.8128ZM2.46295 22.3401L6.18873 17.3722L18.7868 22.9713L15.061 27.9391L2.46295 22.3401ZM33.2818 32.4607L20.7814 38.0164V30.4683C20.7814 30.0369 20.4316 29.6871 20.0001 29.6871C19.5687 29.6871 19.2189 30.0369 19.2189 30.4683V38.0164L6.71842 32.4607V25.9411L14.9951 29.6197C15.3279 29.7678 15.7189 29.6661 15.9374 29.3746L20.0001 23.9577L24.0628 29.3745C24.2141 29.5762 24.448 29.6871 24.6881 29.6871C24.7947 29.6871 24.9027 29.6652 25.0051 29.6197L33.2818 25.9411V32.4607ZM24.9394 27.939L21.2136 22.9712L33.8116 17.3721L37.5374 22.3399L24.9394 27.939Z" fill="#2CAAF2"/>
<path d="M11.1749 3.22626L7.81701 1.73392C7.42271 1.55892 6.96099 1.73634 6.78584 2.13056C6.61052 2.52478 6.7881 2.9865 7.1824 3.16181L10.5403 4.65415C10.6434 4.69993 10.7511 4.72165 10.8572 4.72165C11.1565 4.72165 11.4421 4.54861 11.5715 4.25751C11.7468 3.86322 11.5692 3.4015 11.1749 3.22626Z" fill="#2CAAF2"/>
<path d="M33.2146 2.13064C33.0393 1.73634 32.5776 1.55884 32.1834 1.734L28.8255 3.22634C28.4312 3.40158 28.2536 3.86329 28.4289 4.25759C28.5582 4.54876 28.8438 4.72173 29.1432 4.72173C29.2492 4.72173 29.3569 4.70001 29.46 4.65423L32.8179 3.16189C33.2122 2.98673 33.3898 2.52501 33.2146 2.13064Z" fill="#2CAAF2"/>
</g>
<defs>
<clipPath id="clip0">
<rect width="40" height="40" fill="white"/>
</clipPath>
</defs>
</svg>
