<svg width="99" height="106" viewBox="0 0 99 106" fill="none" xmlns="http://www.w3.org/2000/svg">
<path fill-rule="evenodd" clip-rule="evenodd" d="M99 26.4346C99 21.685 95.1363 17.8213 90.3867 17.8213C87.9482 17.8213 85.7444 18.8419 84.1758 20.4761L50.5629 1.06974C49.9285 0.703642 49.1474 0.703642 48.513 1.06974L14.8993 20.4761C13.3307 18.8419 11.1277 17.8213 8.68923 17.8213C3.93958 17.8213 0.0759277 21.685 0.0759277 26.4346C0.0759277 30.4769 2.87573 33.8759 6.63845 34.7988V73.5979C6.63845 74.3301 7.02938 75.007 7.66384 75.3739L41.2663 94.7747C41.0436 95.5389 40.9218 96.3464 40.9218 97.182C40.9218 101.931 44.7855 105.795 49.5351 105.795C54.284 105.795 58.1477 101.931 58.1477 97.182C58.1477 96.3472 58.0267 95.5413 57.804 94.7771L91.4121 75.3739C92.0465 75.0078 92.4375 74.3301 92.4375 73.5979V34.7988C96.2002 33.8759 99 30.4769 99 26.4346ZM4.1775 26.4346C4.1775 23.9464 6.20105 21.9229 8.68923 21.9229C11.1766 21.9229 13.2002 23.9464 13.2002 26.4346C13.2002 28.922 11.1766 30.9463 8.68923 30.9463C6.20105 30.9463 4.1775 28.922 4.1775 26.4346ZM49.5351 101.694C47.047 101.694 45.0234 99.6701 45.0234 97.182C45.0234 94.6946 47.047 92.6702 49.5351 92.6702C52.0225 92.6702 54.0469 94.6946 54.0469 97.182C54.0469 99.6701 52.0225 101.694 49.5351 101.694ZM55.75 91.2275C54.1807 89.5909 51.9761 88.5687 49.5351 88.5687C47.0958 88.5687 44.8912 89.59 43.3227 91.2251L10.74 72.4139V34.7988C14.5019 33.8759 17.3017 30.4769 17.3017 26.4346C17.3017 25.5983 17.18 24.79 16.9565 24.0241L49.5376 5.21377L82.1194 24.0241C81.8959 24.79 81.7742 25.5975 81.7742 26.4346C81.7742 30.4769 84.574 33.8759 88.3359 34.7988V72.4139L55.75 91.2275ZM90.3867 30.9463C87.8993 30.9463 85.8749 28.922 85.8749 26.4346C85.8749 23.9464 87.8993 21.9229 90.3867 21.9229C92.8748 21.9229 94.8984 23.9464 94.8984 26.4346C94.8984 28.922 92.8748 30.9463 90.3867 30.9463ZM77.6334 32.6086L50.563 16.9801C49.9286 16.614 49.1475 16.614 48.513 16.9801L21.4426 32.6086C20.8082 32.9755 20.4172 33.6524 20.4172 34.3846V65.6423C20.4172 66.3745 20.8082 67.0522 21.4426 67.4183L48.513 83.0475C48.8303 83.2302 49.1835 83.3223 49.5376 83.3223C49.8925 83.3223 50.2458 83.2302 50.563 83.0475L77.6334 67.4183C78.2679 67.0522 78.6588 66.3745 78.6588 65.6423V34.3846C78.6588 33.6524 78.2679 32.9755 77.6334 32.6086ZM49.5376 21.1242L72.5064 34.3846L49.5376 47.6458L26.5696 34.3846L49.5376 21.1242ZM51.5884 77.7195V68.4709C51.5884 67.3382 50.6704 66.4201 49.5376 66.4201C48.4057 66.4201 47.4876 67.3382 47.4876 68.4709V77.7195L24.5188 64.4583V37.9366L48.513 51.7899C48.8303 51.9725 49.1835 52.0646 49.5376 52.0646C49.8925 52.0646 50.2458 51.9725 50.563 51.7899L74.5572 37.9366V64.4583L51.5884 77.7195ZM48.0837 57.7925C48.4674 57.4103 48.9946 57.1917 49.5361 57.1917C50.0752 57.1917 50.6048 57.4103 50.9861 57.7925C51.3674 58.1738 51.5869 58.7025 51.5869 59.2424C51.5869 59.7816 51.3674 60.3103 50.9861 60.6916C50.6048 61.0737 50.0752 61.2932 49.5361 61.2932C48.9946 61.2932 48.4674 61.0737 48.0837 60.6916C47.7024 60.3103 47.4829 59.7816 47.4829 59.2424C47.4829 58.7025 47.7024 58.1738 48.0837 57.7925Z" fill="#2CAAF2"/>
</svg>
